{
  "disableHostCheck": true,
  "compress": true,
  "clientLogLevel": "none",
  "contentBase": "c:\\temp\\demo-babel-gitlab-issue\\public",
  "watchContentBase": true,
  "hot": true,
  "publicPath": "/",
  "quiet": true,
  "watchOptions": {
    "ignored": {
      "$type": "RegExp",
      "$toString": "/node_modules/"
    }
  },
  "https": false,
  "host": "0.0.0.0",
  "overlay": false,
  "historyApiFallback": {
    "disableDotRule": true
  },
  "public": "192.168.1.50",
  "setup": {
    "$type": "Function",
    "name": "setup",
    "$toString": "setup(app) {\n      // This lets us open files from the runtime error overlay.\n      app.use(errorOverlayMiddleware());\n      // This service worker file is effectively a 'no-op' that will reset any\n      // previous service worker registered for the same host:port combination.\n      // We do this in development to avoid hitting the production cache if\n      // it used the same host and port.\n      // https://github.com/facebookincubator/create-react-app/issues/2272#issuecomment-302832432\n      app.use(noopServiceWorkerMiddleware());\n    }"
  }
}